{
   "image": "nanotrix/atran:cs-whiskey-${image.e2e_whiskey_version}",
  "cpus": "${cpus.v2t.e2e}",
  "mem": "${mem.v2t.e2e}",
  "args": [],
  "port": 6666,
  "env": {
     "NO_FLOW_CONTROL": "true"
	}
}