{
  "image": "nanotrix/v2t-hr-t-broadcast:2019.01.04-manual.25",
  "cpus": "0.5",
  "mem": "512",
  "args": [
    "run",
    "-F",
    "grpc",
    "-L",
    "debug",
    "-m",
    "4096"
  ],
  "port": 6666,
  "env": {
    "ntx4_licence.authority": "http://stores-local.marathon.l4lb.thisdcos.directory:8080/license",
    "ntx4_licence.audience": "https://nanogrid.cloud"
  }
}
