{
  "image": "nanotrix/v2t-hr-d-voice_control:0.2.8",
  "cpus":  "0.5",
  "mem": "512",
  "args": [
    "run",
    "-F",
    "grpc",
    "-L",
    "debug",
    "-m",
    "4096",
    "--dictate"
  ],
  "port": 6666,
  "env": {
    "ntx4_licence.authority": "http://stores-local.marathon.l4lb.thisdcos.directory:8080/license",
    "ntx4_licence.audience": "https://nanogrid.cloud"
  }
}

