{
    "tests": [
        { "file": "data/cz/dictate/basetext.mp3", "label": "v2t+ppc", "name": "test-basic-v2t+ppc" },
        { "file": "data/cz/dictate/basetext.mp3", "label": "vad+v2t+ppc", "name": "test-basic-vad+v2t+ppc"}
    ]
} 