{
  "image": "${image.v2t_package_sk_parliament_trainonly}",
  "cpus": "${cpus.ppc.any}",
  "mem": "${mem.ppc.any}",
  "args": [
    "run",
    "-F",
    "grpc",
    "-L",
    "${logging.level}"
  ],
  "port": 6666,
  "env": {
    "ntx4_licence.authority": "${ntx4_licence.authority}",
    "ntx4_licence.audience": "${ntx4_licence.audience}",
    "MONO_GC_PARAMS": "${env.ppc.mono_gc_params}"
  }
}