{
  "image": "${image.v2t_package_pl_dictate_justice}",
  "cpus": "${cpus.v2t.dictate}",
  "mem": "${mem.v2t.dictate}",
  "args": [
    "run",
    "-F",
    "grpc",
    "-L",
    "${logging.level}",
    "-m",
    "4096",
    "--dictate"
  ],
  "port": 6666,
  "env": {
    "ntx4_licence.authority": "${ntx4_licence.authority}",
    "ntx4_licence.audience": "${ntx4_licence.audience}",
    "MONO_GC_PARAMS": "${env.v2t.mono_gc_params}"
  }
}