{
  "image": "nanotrix/v2t-hr-t-parliament:0.2.19",
  "cpus": "0.25",
  "mem": "384",
  "args": [
    "run",
    "-F",
    "grpc",
    "-L",
    "debug",
    "-m",
    "4096"
  ],
  "port": 6666,
  "env": {
    "ntx4_licence.authority": "http://stores-local.marathon.l4lb.thisdcos.directory:8080/license",
    "ntx4_licence.audience": "https://nanogrid.cloud",
    "MONO_GC_PARAMS": "max-heap-size=256m,soft-heap-limit=192m,nursery-size=8m"
  }
}
