{
  "image": "nanotrix/v2t-sl-t-parliament:0.2.9",
  "cpus": "1.3",
  "mem": "3072",
  "args": [
    "run",
    "-F",
    "grpc",
    "-L",
    "debug",
    "-m",
    "4096"
  ],
  "port": 6666,
  "env": {
    "ntx4_licence.authority": "http://stores-local.marathon.l4lb.thisdcos.directory:8080/license",
    "ntx4_licence.audience": "https://nanogrid.cloud",
    "MONO_GC_PARAMS": "max-heap-size=2048m,soft-heap-limit=1536m,nursery-size=128m"
  }
}
